{
  "data": [
    {
      "id": "984b32db-dadd-4dce-90d3-c5f1786ad18e",
      "type": "stores",
      "attributes": {
        "name": "Store3",
        "code": "STCT0000003",
        "active": true,
        "full_address": "Presidente Errazuriz 4125 , Santiago, Chile",
        "coordinates": {
          "latitude": -33.41991,
          "longitude": -70.585991
        },
        "created_at": "2019-03-11T20:06:21Z"
      },
      "links": {
        "self": "https://neo.frogmi.com/api/v3/stores/984b32db-dadd-4dce-90d3-c5f1786ad18e"
      },
      "relationships": {
        "brands": {
          "data": {
            "id": "54b2cdc3-623d-47b5-b00c-0448afedc8b1",
            "type": "brands"
          }
        },
        "zones": {
          "data": {
            "id": "a2a7f7d8-62fa-43a5-9451-f98edc7b6454",
            "type": "zones"
          }
        }
      }
    }
  ],
  "meta": {
    "pagination": {
      "current_page": 1,
      "total": 121,
      "per_page": 10
    }
  },
  "links": {
    "prev": null,
    "next": "https://neo.frogmi.com/api/v3/stores?per_page=10&page=2",
    "first": "https://neo.frogmi.com/api/v3/stores?per_page=10&page=1",
    "last": "https://neo.frogmi.com/api/v3/stores?per_page=10&page=121",
    "self": "https://neo.frogmi.com/api/v3/stores?per_page=10&page=1"
  }
}
